<svg width="100" height="100" viewBox="0 0 100 100" fill="none" xmlns="http://www.w3.org/2000/svg">
<path d="M86.5732 70.0095L69.7875 53.2239C68.0856 51.5253 65.7778 50.3199 63.2643 49.9366L70.6642 42.5367C75.9067 43.469 81.3512 41.7886 85.1493 37.9903C90.0549 33.0845 91.3428 25.5844 88.3534 19.327C87.6567 17.8689 85.7246 17.5389 84.5835 18.6805L79.21 24.0541H75.8974V20.7416L81.271 15.368C82.4135 14.2256 82.0812 12.294 80.6244 11.5983C74.3672 8.60902 66.8669 9.89668 61.961 14.8026C58.1629 18.6008 56.4823 24.0449 57.4148 29.2877L48.3199 38.3826L35.53 25.5927L37.1862 23.9363C38.264 22.8586 38.0395 21.0541 36.7351 20.2714L20.1727 10.3339C19.2511 9.78075 18.0713 9.92622 17.3113 10.6862L10.6861 17.3113C9.92608 18.0713 9.78092 19.251 10.3337 20.1727L20.2714 36.7354C21.0613 38.0521 22.8671 38.2557 23.9363 37.1865L25.5927 35.5301L38.3826 48.3199L29.2877 57.4147C24.0452 56.4824 18.6008 58.163 14.8027 61.9612C9.89671 66.867 8.60889 74.3672 11.5983 80.6244C12.295 82.0825 14.227 82.4125 15.3681 81.271L20.7416 75.8973H24.0541V79.2099L18.6805 84.5835C17.538 85.7258 17.8703 87.6574 19.3271 88.3532C21.5761 89.4277 23.9852 89.9496 26.3773 89.9494C30.6401 89.9493 34.8478 88.2913 37.9903 85.149C41.7884 81.3508 43.4691 75.9067 42.5366 70.6639L49.9368 63.2637C50.3202 65.7776 51.5261 68.0861 53.2257 69.7889L70.0095 86.5727C74.5689 91.1323 81.9874 91.1527 86.5737 86.5722C91.1385 82.0049 91.1384 74.5748 86.5732 70.0095ZM22.7451 31.7527L15.2917 19.3306L19.3305 15.292L31.7524 22.7452C30.8879 23.6097 23.9124 30.5854 22.7451 31.7527ZM28.9049 32.2177C31.0626 30.0599 30.4107 30.7119 32.2176 28.9051L45.0074 41.6948L41.6948 45.0073L28.9049 32.2177ZM38.3169 68.2587C37.7256 68.85 37.4942 69.7115 37.71 70.5195C38.7872 74.5523 37.6253 78.8888 34.6776 81.8367C32.0282 84.486 28.3204 85.6583 24.7385 85.1508L28.0526 81.8367C28.4918 81.3975 28.7387 80.8017 28.7387 80.1806V73.5553C28.7387 72.2617 27.6899 71.2129 26.3963 71.2129H19.7711C19.1497 71.2129 18.5541 71.4598 18.1149 71.899L14.8008 75.2131C14.2934 71.6308 15.4658 67.9231 18.1149 65.274C21.0625 62.3263 25.3991 61.1643 29.4321 62.2416C30.2401 62.4573 31.1015 62.2262 31.6929 61.6349C32.2131 61.1148 60.5959 32.732 61.6348 31.6931C62.2261 31.1018 62.4575 30.2402 62.2417 29.4323C61.1645 25.3994 62.3264 21.063 65.274 18.115C67.9233 15.4658 71.6306 14.293 75.2132 14.8009L71.8991 18.115C71.4598 18.5542 71.213 19.15 71.213 19.7711V26.3961C71.213 27.6897 72.2617 28.7385 73.5553 28.7385H80.1805C80.8019 28.7385 81.3976 28.4916 81.8368 28.0524L85.1509 24.7383C85.6582 28.3207 84.4859 32.0284 81.8368 34.6774C78.8891 37.6251 74.5524 38.7868 70.5195 37.7098C69.7116 37.494 68.8501 37.7253 68.2587 38.3165L38.3169 68.2587ZM83.2618 83.2597C80.5158 86.0021 76.0578 85.9966 73.3222 83.2608L56.5398 66.4784C54.1674 64.1013 53.441 59.9599 56.6285 56.6286C59.9596 53.4411 64.1012 54.1677 66.4767 56.5382L83.2605 73.322C85.9998 76.0614 85.9996 80.5199 83.2618 83.2597Z" fill="#F4F8FA" stroke="#F4F8FA" stroke-width="0.1"/>
<path d="M79.8961 76.5843L63.3436 60.0317C62.4291 59.117 60.9458 59.117 60.0311 60.0317C59.1164 60.9464 59.1164 62.4296 60.0311 63.3442L76.5836 79.8967C77.4981 80.8114 78.9815 80.8114 79.8961 79.8967C80.8108 78.982 80.8108 77.499 79.8961 76.5843Z" fill="#F4F8FA" stroke="#F4F8FA" stroke-width="0.1"/>
</svg>
