<svg width="110" height="110" viewBox="0 0 110 110" fill="none" xmlns="http://www.w3.org/2000/svg">
<g clip-path="url(#clip0)">
<path d="M109.513 80.2136C109.446 80.1286 102.866 71.6623 100.727 64.8947C100.221 63.2834 99.5852 61.0139 98.8558 58.4134C95.3779 45.9726 92.2134 35.3869 88.7044 31.88C84.7018 27.8774 69.0166 25.3315 63.7992 24.5819C61.9926 21.4333 59.8246 19.75 57.292 19.75C50.1752 19.75 22.9167 29.2189 22.9167 44.9585C22.9167 51.8314 16.1177 61.9627 10.1156 70.9011C4.68643 78.9895 0 85.9741 0 90.7924C0 102.251 11.436 102.251 20.6252 102.251C25.7501 102.251 28.4402 100.906 30.817 99.7174C33.0147 98.6163 34.9169 97.6673 38.9588 97.6673C53.2415 97.6673 64.1673 97.1616 64.1673 90.7922C64.1673 90.2983 64.2296 89.2892 64.3299 87.9612C64.3901 87.9975 64.4474 88.0343 64.5076 88.0708C69.176 90.9042 74.01 93.8336 78.2263 101.109C78.6382 101.817 79.3902 102.251 80.2091 102.251C102.016 102.251 109.773 82.644 109.849 82.4446C110.135 81.6952 110.01 80.847 109.513 80.2136ZM60.2328 27.498L64.1359 42.8371L63.7728 46.3496C63.0015 44.8161 62.2979 43.2668 61.7099 41.8099C60.018 37.6183 53.3487 29.1968 47.5301 28.0128C46.3164 27.7605 45.1775 27.8213 44.1508 28.1778C49.5593 25.7431 54.8071 24.3335 57.292 24.3335C58.1426 24.3335 59.2346 25.5107 60.2328 27.498ZM59.6018 90.7231C58.2949 93.0842 43.7391 93.0842 38.9588 93.0842C37.1956 93.0842 35.7941 93.2784 34.521 93.5358C37.3414 87.2112 41.2503 75.4512 41.2503 58.7089C41.2503 57.4421 40.2253 56.4171 38.9586 56.4171C37.6919 56.4171 36.6668 57.4421 36.6668 58.7089C36.6668 80.3194 29.7007 93.3257 28.1854 95.8974C26.2137 96.8698 24.3068 97.6677 20.625 97.6677C9.72155 97.6677 4.58309 96.9897 4.58309 90.7927C4.58309 87.3708 9.33203 80.2966 13.9244 73.455C20.2851 63.9726 27.5002 53.2258 27.5002 44.9587C27.5002 38.141 35.2998 32.3535 43.1107 28.6571C42.6877 28.9091 42.29 29.2195 41.9217 29.5884C36.4028 35.1029 39.5629 44.4843 43.9449 50.8425C47.454 55.9339 50.059 61.9451 50.4262 65.8011C50.4889 66.4412 50.5158 67.0477 50.5426 67.6475C50.6947 70.9574 50.8559 74.3817 55.4394 80.6816C56.7581 82.4945 58.3009 83.883 59.963 85.1091C59.7307 87.886 59.5863 89.9679 59.6018 90.7231ZM81.4892 97.6407C76.8253 90.1814 71.3377 86.8537 66.8842 84.1524C63.7599 82.259 61.0655 80.6231 59.1453 77.9868C55.3676 72.7946 55.2602 70.4313 55.1214 67.437C55.09 66.7634 55.0587 66.083 54.9916 65.3669C54.5484 60.7299 51.6974 54.007 47.7228 48.242C44.1869 43.1171 41.8816 36.1099 45.1625 32.829C45.4355 32.5625 45.7892 32.3365 46.6172 32.5045C50.2068 33.2342 55.9988 39.9122 57.4579 43.5244C59.2125 47.8684 63.9615 58.2504 70.1651 60.8262C70.8724 61.1149 71.6826 61.0389 72.3136 60.6158C74.6053 59.0896 75.6527 56.6994 76.418 54.9559C76.6373 54.4547 76.9418 53.7676 76.9328 53.7184C77.8682 53.0694 78.1859 51.8295 77.6757 50.809C76.9774 49.4146 75.9032 45.6817 75.5451 44.3615C75.3571 43.6654 74.8558 43.0992 74.1844 42.8307L68.2616 40.4616L65.4649 29.4737C73.4542 30.7626 83.3805 33.0397 85.4638 35.1209C88.4089 38.066 92.1868 51.5745 94.4427 59.6469C95.1856 62.3056 95.8392 64.6264 96.3584 66.2736C98.2787 72.3608 103.099 79.2627 105.06 81.9215C103.256 85.5824 96.4298 97.0187 81.4892 97.6407ZM67.7105 52.8051L68.4702 45.4819L71.4316 46.6663C71.7853 47.9107 72.3894 49.9249 72.9938 51.4958C72.7162 51.9859 72.4745 52.532 72.2195 53.1138C71.8031 54.0628 71.3511 55.1012 70.7155 55.9068C69.7073 55.1888 68.6954 54.0918 67.7105 52.8051Z" fill="#F4F8FA" stroke="#F4F8FA" stroke-width="0.5"/>
</g>
<defs>
<clipPath id="clip0">
<rect width="110" height="110" fill="white"/>
</clipPath>
</defs>
</svg>
