<svg width="55" height="61" viewBox="0 0 55 61" fill="none" xmlns="http://www.w3.org/2000/svg">
<path d="M35.4219 39.3594H29.5156V41.3281H25.5781V19.6719H36.4062V29.5156L39.3594 27.5469L42.3125 29.5156V19.6719H53.1406V43.2969H43.2969H35.4219V39.3594Z" fill="#C1D6EE"/>
<path d="M7.85938 27.5469H15.7344C17.3008 27.5469 18.8031 28.1691 19.9107 29.2768C21.0184 30.3844 21.6406 31.8867 21.6406 33.4531V41.3281H17.7031C17.181 41.3281 16.6802 41.1207 16.311 40.7515C15.9418 40.3823 15.7344 39.8815 15.7344 39.3594V35.4219C15.7344 34.3776 15.3195 33.3761 14.5811 32.6376C13.8427 31.8992 12.8412 31.4844 11.7969 31.4844C10.7526 31.4844 9.75107 31.8992 9.01264 32.6376C8.27422 33.3761 7.85938 34.3776 7.85938 35.4219V41.3281C7.85938 43.4167 8.68906 45.4197 10.1659 46.8966C11.6428 48.3734 13.6458 49.2031 15.7344 49.2031H21.6406V55.1094H1.95312V33.4531C1.95312 31.8867 2.57539 30.3844 3.68303 29.2768C4.79066 28.1691 6.29294 27.5469 7.85938 27.5469Z" fill="#C1D6EE"/>
<path d="M29.5156 39.3594H35.4219V43.2969V47.2344V51.1719H29.5156V49.2031V41.3281V39.3594Z" fill="#C1D6EE"/>
<path d="M4.90625 11.7969V9.82812C4.90625 7.73954 5.73594 5.73651 7.21279 4.25966C8.68963 2.78281 10.6927 1.95313 12.7812 1.95312C14.8698 1.95313 16.8729 2.78281 18.3497 4.25966C19.8266 5.73651 20.6562 7.73954 20.6562 9.82812V11.7969H4.90625Z" fill="#C1D6EE"/>
<path d="M6.875 26.6413V24.1695C6.26673 23.7538 5.76936 23.1956 5.42621 22.5436C5.08307 21.8916 4.90456 21.1656 4.90625 20.4289V12.7812C4.64518 12.7812 4.3948 12.6775 4.21019 12.4929C4.02559 12.3083 3.92188 12.0579 3.92188 11.7969V9.82812C3.92188 7.47847 4.85527 5.22506 6.51673 3.5636C8.17818 1.90215 10.4316 0.96875 12.7812 0.96875C15.1309 0.96875 17.3843 1.90215 19.0458 3.5636C20.7072 5.22506 21.6406 7.47847 21.6406 9.82812V10.8125H26.5625C26.8236 10.8125 27.074 10.9162 27.2586 11.1008C27.4432 11.2854 27.5469 11.5358 27.5469 11.7969C27.5469 12.0579 27.4432 12.3083 27.2586 12.4929C27.074 12.6775 26.8236 12.7812 26.5625 12.7812H20.6562V17.7031C20.6542 19.3596 20.0564 20.9601 18.9721 22.2123C17.8877 23.4645 16.3892 24.285 14.75 24.5239V26.5625H15.7344C17.5612 26.5646 19.3127 27.2912 20.6045 28.583C21.8963 29.8748 22.6229 31.6263 22.625 33.4531V40.3438H24.5938V19.6719C24.5938 19.4108 24.6975 19.1604 24.8821 18.9758C25.0667 18.7912 25.3171 18.6875 25.5781 18.6875H53.1406C53.4017 18.6875 53.6521 18.7912 53.8367 18.9758C54.0213 19.1604 54.125 19.4108 54.125 19.6719V43.2969C54.125 43.5579 54.0213 43.8083 53.8367 43.9929C53.6521 44.1775 53.4017 44.2812 53.1406 44.2812H44.1828C43.9543 45.3922 43.3499 46.3904 42.4712 47.1077C41.5926 47.8249 40.4936 48.2173 39.3594 48.2188H36.4062V51.1719C36.4062 51.4329 36.3025 51.6833 36.1179 51.8679C35.9333 52.0525 35.6829 52.1562 35.4219 52.1562H29.5156C29.2546 52.1562 29.0042 52.0525 28.8196 51.8679C28.635 51.6833 28.5312 51.4329 28.5312 51.1719V50.1875H22.625V59.0469C22.625 59.3079 22.5213 59.5583 22.3367 59.7429C22.1521 59.9275 21.9017 60.0312 21.6406 60.0312H1.95312C1.69205 60.0312 1.44167 59.9275 1.25706 59.7429C1.07246 59.5583 0.96875 59.3079 0.96875 59.0469V33.4531C0.971916 31.7979 1.57029 30.199 2.65463 28.9484C3.73896 27.6978 5.23692 26.8789 6.875 26.6413ZM19.6719 9.82812C19.6719 8.00062 18.9459 6.24796 17.6537 4.95572C16.3614 3.66347 14.6088 2.9375 12.7812 2.9375C10.9537 2.9375 9.20108 3.66347 7.90884 4.95572C6.6166 6.24796 5.89062 8.00062 5.89062 9.82812V10.8125H19.6719V9.82812ZM11.7969 22.625H13.7656C15.0705 22.6234 16.3215 22.1044 17.2442 21.1817C18.1669 20.259 18.6859 19.008 18.6875 17.7031V12.7812H6.875V20.4239C6.87304 20.9028 7.00549 21.3727 7.25729 21.7801C7.50909 22.1874 7.87014 22.516 8.29939 22.7284C8.46302 22.8101 8.60064 22.9359 8.69679 23.0915C8.79295 23.2471 8.84383 23.4264 8.84375 23.6094V26.5625H12.7812V24.5938H11.7969C11.5358 24.5938 11.2854 24.49 11.1008 24.3054C10.9162 24.1208 10.8125 23.8704 10.8125 23.6094C10.8125 23.3483 10.9162 23.0979 11.1008 22.9133C11.2854 22.7287 11.5358 22.625 11.7969 22.625ZM37.3906 20.6562V27.6758L38.813 26.7279C38.9748 26.6199 39.1649 26.5624 39.3594 26.5624C39.5538 26.5624 39.7439 26.6199 39.9057 26.7279L41.3281 27.6758V20.6562H37.3906ZM52.1562 20.6562H43.2969V29.5156C43.2969 29.6938 43.2485 29.8687 43.157 30.0216C43.0654 30.1745 42.934 30.2996 42.7769 30.3837C42.6198 30.4678 42.4427 30.5076 42.2647 30.499C42.0867 30.4903 41.9144 30.4335 41.7662 30.3346L39.3594 28.7281L36.9526 30.3327C36.8045 30.4315 36.6323 30.4883 36.4545 30.497C36.2767 30.5057 36.0998 30.4661 35.9427 30.3822C35.7857 30.2984 35.6543 30.1735 35.5625 30.0209C35.4708 29.8683 35.4222 29.6937 35.4219 29.5156V20.6562H26.5625V40.3438H28.5312V39.3594C28.5312 39.0983 28.635 38.8479 28.8196 38.6633C29.0042 38.4787 29.2546 38.375 29.5156 38.375H35.4219C35.6829 38.375 35.9333 38.4787 36.1179 38.6633C36.3025 38.8479 36.4062 39.0983 36.4062 39.3594V42.3125H52.1562V20.6562ZM39.3594 46.25C39.97 46.2493 40.5654 46.0596 41.0639 45.7072C41.5625 45.3547 41.9398 44.8566 42.1442 44.2812H36.4062V46.25H39.3594ZM30.5 50.1875H34.4375V40.3438H30.5V50.1875ZM28.5312 42.3125H17.7031C16.9199 42.3125 16.1688 42.0014 15.615 41.4475C15.0611 40.8937 14.75 40.1426 14.75 39.3594V35.4219C14.75 34.6387 14.4389 33.8875 13.885 33.3337C13.3312 32.7799 12.5801 32.4688 11.7969 32.4688C11.0137 32.4688 10.2625 32.7799 9.7087 33.3337C9.15488 33.8875 8.84375 34.6387 8.84375 35.4219V41.3281C8.84583 43.155 9.57248 44.9064 10.8643 46.1982C12.1561 47.49 13.9075 48.2167 15.7344 48.2188H28.5312V42.3125ZM15.7344 50.1875C13.3855 50.1849 11.1336 49.2507 9.47273 47.5898C7.81184 45.9289 6.87761 43.677 6.875 41.3281V35.4219C6.875 34.1165 7.39355 32.8646 8.31659 31.9416C9.23961 31.0186 10.4915 30.5 11.7969 30.5C13.1022 30.5 14.3541 31.0186 15.2772 31.9416C16.2002 32.8646 16.7188 34.1165 16.7188 35.4219V39.3594C16.7188 39.6204 16.8225 39.8708 17.0071 40.0554C17.1917 40.24 17.4421 40.3438 17.7031 40.3438H20.6562V33.4531C20.6547 32.1482 20.1356 30.8973 19.2129 29.9746C18.2902 29.0519 17.0393 28.5328 15.7344 28.5312H7.85938C6.55449 28.5328 5.3035 29.0519 4.38081 29.9746C3.45812 30.8973 2.93906 32.1482 2.9375 33.4531V54.125H20.6562V50.1875H15.7344ZM2.9375 58.0625H20.6562V56.0938H2.9375V58.0625Z" fill="url(#paint0_linear)"/>
<defs>
<linearGradient id="paint0_linear" x1="51.2843" y1="60.0313" x2="-3.96242" y2="51.5371" gradientUnits="userSpaceOnUse">
<stop stop-color="#2C6AB0"/>
<stop offset="1" stop-color="#539EF2"/>
</linearGradient>
</defs>
</svg>
