<svg width="37" height="37" viewBox="0 0 37 37" fill="none" xmlns="http://www.w3.org/2000/svg">
<circle cx="18.5" cy="18.5" r="18" stroke="white" stroke-opacity="0.25"/>
<path d="M17.2166 20.8661L14.5756 18.2229L13.7038 19.0954L17.2166 22.6111L23.191 16.6318L22.3192 15.7593L17.2166 20.8661Z" fill="white" stroke="white"/>
</svg>
