<svg width="16" height="16" viewBox="0 0 16 16" fill="none" xmlns="http://www.w3.org/2000/svg">
<circle cx="8" cy="8" r="8" fill="#FF8C26"/>
<path d="M4 7.64706L6.56 10L12 5" stroke="white" stroke-width="1.5"/>
</svg>
