<svg width="16" height="16" viewBox="0 0 16 16" fill="none" xmlns="http://www.w3.org/2000/svg">
<g clip-path="url(#clip0)">
<path d="M0.410499 7.98029C2.01176 7.0928 3.7992 6.3521 5.46929 5.60761C8.3425 4.38819 11.2271 3.1899 14.1409 2.07431C14.7077 1.88423 15.7264 1.69839 15.8262 2.54373C15.7716 3.74029 15.5466 4.92985 15.3923 6.1194C15.0006 8.73535 14.5478 11.3423 14.1064 13.9497C13.9542 14.8181 12.873 15.2677 12.1812 14.712C10.5185 13.5819 8.84304 12.4629 7.20159 11.3066C6.66385 10.7568 7.16256 9.9674 7.64266 9.57483C9.01209 8.21678 10.4644 7.06317 11.7622 5.63506C12.1123 4.78432 11.0779 5.50125 10.7367 5.72097C8.86199 7.0209 7.03311 8.4002 5.05653 9.54267C4.0469 10.1019 2.87015 9.62398 1.86097 9.31192C0.956124 8.93497 -0.369815 8.55514 0.410384 7.9804L0.410499 7.98029Z" fill="url(#paint0_linear)"/>
</g>
<defs>
<linearGradient id="paint0_linear" x1="1.01054" y1="14.9566" x2="16.9912" y2="11.6805" gradientUnits="userSpaceOnUse">
<stop stop-color="#2C6AB0"/>
<stop offset="1" stop-color="#539EF2"/>
</linearGradient>
<clipPath id="clip0">
<rect width="15.6522" height="15.6522" fill="white" transform="translate(0.174072 0.173828)"/>
</clipPath>
</defs>
</svg>
